{
        "projectName": "maria",
        "budget": 8000,
        "budgetCurrency":["euro","leutii","lira"]
        "teamMembers":[{
            "name":"sdf",
            "role": "dsfv", 
            "hourlyRate": 2
            
        },
         {
            "name":"sdddf",
            "role": "asddsfv", 
            "hourlyRate": 4
            
        }],
        "isCompleted":true
}